Jim 30000
Boccob 5868
Khelben 2259
Boccob 1147
Mystryl 678
Circe 441
Kreol 307
Kaschei 224
Mordenkainen 170
Zagyg 132
Archchancellor 106
Grimm 86
Mogan 71
Urza 60
Alatar 51
Tzeentch 43
Kaschei 38
Mordenkainen 33
Tenser 29
Grimm 25
Palando 23
Mogan 20
Alatar 18
Gulstaff 16
Merlin 15
Kreol 14
Zagyg 12
Kreol 11
Kreol 10
Elminister 10
